^C:\USERS\YAROSLAV\DOCUMENTS\VISUAL STUDIO 2012\PROJECTS\SP_LAB5.1\SP_LAB5.1\RELEASE\SP_LAB5.1.OBJ|C:\USERS\YAROSLAV\DOCUMENTS\VISUAL STUDIO 2012\PROJECTS\SP_LAB5.1\SP_LAB5.1\RELEASE\STDAFX.OBJ
C:\USERS\YAROSLAV\DOCUMENTS\VISUAL STUDIO 2012\PROJECTS\SP_LAB5.1\RELEASE\SP_LAB5.1.EXE
C:\USERS\YAROSLAV\DOCUMENTS\VISUAL STUDIO 2012\PROJECTS\SP_LAB5.1\RELEASE\SP_LAB5.1.PDB
